{
    "index": {
        "download_fdroid": "Descarcă F-Droid", 
        "introduction": "F-Droid este un catalog [instalabil](https://f-droid.org/FDroid.apk) de aplicații FOSS (software liber și cu sursă deschisă) pentru platforma Android. Clientul ușurează căutarea, instalarea și ținerea evidenței actualizărilor pe dispozitivul dumneavoastră.", 
        "screenshot": "Captura de ecran aplicația F-Droid", 
        "title": "Ce este F-Droid?"
    }, 
    "navigation": {
        "about": "Despre", 
        "browse": "Răsfoiți", 
        "contribute": "Contribuție", 
        "documentation": "Documentație", 
        "forum": "Forum", 
        "issues": "Listă probleme", 
        "news": "Știri"
    }, 
    "sidebars": {
        "donate": {
            "bank_transfer_name": "Nume", 
            "heading": "Donează", 
            "powered_by_donations": "F-Droid este alimentat de donațiile dumneavoastră!", 
            "via_bank_transfer": "Transfer bancar", 
        }, 
        "last_updated": {
            "heading": "Ultimele actualizări"
        }, 
        "latest_packages": {
            "heading": "Cele mai noi aplicații"
        }, 
        "news": {
            "heading": "Știri"
        }
    }
}