{
    "navigation.browse": "Esplora",
    "navigation.forum": "Forum",
    "navigation.documentation": "Documentos",
    "navigation.news": "Noas",
    "navigation.issues": "Problemas",
    "navigation.contribute": "Agiuda",
    "navigation.about": "A pitzu de",
    "index.title": "Ite est F-Droid?",
    "index.introduction": "F-Droid est unu catàlogu [installàbile](https://f-droid.org/FDroid.apk) de aplicatziones a mitza lìbera (Open Source Software) pro sos sistemas operativos Android. S'aplicatzione permitit de esplorare, installare, e gestire sos agiornamentos pro su dispositivu bostru in manera fàtzile.",
    "index.download_fdroid": "Iscàrriga F-Droid",
    "index.screenshot": "Ischermadas de s'aplicatzione de F-Droid pro Android",
    "sidebars.donate.heading": "Faghe una donatzione",
    "sidebars.donate.powered_by_donations": "F-Droid est suportadu dae sas donatziones bostras!",
    "sidebars.donate.via_bank_transfer": "Bonìficu bancàriu",
    "sidebars.donate.bank_transfer_name": "Nùmene",
    "sidebars.last_updated.heading": "Ùrtimu agiornamentu",
    "sidebars.latest_packages.heading": "Aplicatziones prus noas",
    "sidebars.news.heading": "Noas"
}
