{
    "index": {
        "download_fdroid": "Descarregar", 
        "title": "O que é F-Droid?"
    }, 
    "navigation": {
        "about": "Acerca", 
        "browse": "Explorar", 
        "contribute": "Participar", 
        "documentation": "Documentação", 
        "forum": "Fórum", 
        "issues": "Problemas", 
        "news": "Novidades"
    }, 
    "sidebars": {
        "donate": {
            "bank_transfer_name": "Nome", 
            "heading": "Donativos", 
            "via_bank_transfer": "Transferência bancária", 
        }, 
        "last_updated": {
            "heading": "Última atualização"
        }, 
        "latest_packages": {
            "heading": "Últimas aplicações"
        }, 
        "news": {
            "heading": "Novidades"
        }
    }
}